EESchema Schematic File Version 4
EELAYER 30 0
EELAYER END
$Descr A4 11693 8268
encoding utf-8
Sheet 1 1
Title ""
Date ""
Rev ""
Comp ""
Comment1 ""
Comment2 ""
Comment3 ""
Comment4 ""
$EndDescr
$Comp
L TNY280_Preamp_PSU-rescue:TNY280G-Regulator_Switching U1
U 1 1 5D03C086
P 3550 4050
F 0 "U1" H 3220 4096 50  0000 R CNN
F 1 "TNY280G" H 3220 4005 50  0000 R CNN
F 2 "Package_DIP:PowerIntegrations_SMD-8C" H 3550 4050 50  0001 C CIN
F 3 "http://www.powerint.com/sites/default/files/product-docs/tny274-280.pdf" H 3550 4050 50  0001 C CNN
	1    3550 4050
	1    0    0    -1  
$EndComp
$Comp
L Connector:Conn_01x02_Male J1
U 1 1 5D03C795
P 1250 1150
F 0 "J1" H 1358 1331 50  0000 C CNN
F 1 "AC_IN" H 1358 1240 50  0000 C CNN
F 2 "TerminalBlock:TerminalBlock_bornier-2_P5.08mm" H 1250 1150 50  0001 C CNN
F 3 "~" H 1250 1150 50  0001 C CNN
	1    1250 1150
	1    0    0    -1  
$EndComp
$Comp
L Device:D_Bridge_+-AA D1
U 1 1 5D03D12C
P 2050 1200
F 0 "D1" H 2300 1350 50  0000 L CNN
F 1 "D_Bridge_+-AA" H 2394 1155 50  0001 L CNN
F 2 "Package_DIP:DIP-4_W7.62mm" H 2050 1200 50  0001 C CNN
F 3 "~" H 2050 1200 50  0001 C CNN
	1    2050 1200
	1    0    0    -1  
$EndComp
$Comp
L power:GND #PWR0101
U 1 1 5D03DB36
P 1650 1750
F 0 "#PWR0101" H 1650 1500 50  0001 C CNN
F 1 "GND" H 1655 1577 50  0000 C CNN
F 2 "" H 1650 1750 50  0001 C CNN
F 3 "" H 1650 1750 50  0001 C CNN
	1    1650 1750
	1    0    0    -1  
$EndComp
Wire Wire Line
	1650 1750 1650 1200
Wire Wire Line
	1650 1200 1750 1200
Wire Wire Line
	1450 800  2050 800 
Wire Wire Line
	2050 800  2050 900 
Wire Wire Line
	1450 1250 1450 1600
Wire Wire Line
	1450 1600 2050 1600
Wire Wire Line
	2050 1600 2050 1500
$Comp
L Device:CP C1
U 1 1 5D03E6EC
P 2550 1500
F 0 "C1" H 2668 1546 50  0000 L CNN
F 1 "100u/400V" H 2668 1455 50  0000 L CNN
F 2 "Capacitor_THT:CP_Radial_D18.0mm_P7.50mm" H 2588 1350 50  0001 C CNN
F 3 "~" H 2550 1500 50  0001 C CNN
	1    2550 1500
	1    0    0    -1  
$EndComp
Wire Wire Line
	2550 1350 2550 1200
Wire Wire Line
	2550 1200 2350 1200
$Comp
L power:GND #PWR0102
U 1 1 5D03ED9B
P 2550 1650
F 0 "#PWR0102" H 2550 1400 50  0001 C CNN
F 1 "GND" H 2555 1477 50  0000 C CNN
F 2 "" H 2550 1650 50  0001 C CNN
F 3 "" H 2550 1650 50  0001 C CNN
	1    2550 1650
	1    0    0    -1  
$EndComp
$Comp
L Device:D_Zener D2
U 1 1 5D0401EB
P 3350 1500
F 0 "D2" V 3396 1421 50  0000 R CNN
F 1 "D_Zener" V 3305 1421 50  0000 R CNN
F 2 "Diode_THT:D_T-1_P10.16mm_Horizontal" H 3350 1500 50  0001 C CNN
F 3 "~" H 3350 1500 50  0001 C CNN
	1    3350 1500
	0    -1   -1   0   
$EndComp
$Comp
L Device:R R1
U 1 1 5D041D0C
P 3350 1950
F 0 "R1" H 3420 1996 50  0000 L CNN
F 1 "1k" H 3420 1905 50  0000 L CNN
F 2 "Resistor_THT:R_Axial_DIN0207_L6.3mm_D2.5mm_P10.16mm_Horizontal" V 3280 1950 50  0001 C CNN
F 3 "~" H 3350 1950 50  0001 C CNN
	1    3350 1950
	1    0    0    -1  
$EndComp
$Comp
L Device:C C2
U 1 1 5D042165
P 3950 1950
F 0 "C2" H 4065 1996 50  0000 L CNN
F 1 "10n" H 4065 1905 50  0000 L CNN
F 2 "Capacitor_THT:C_Rect_L16.5mm_W5.0mm_P15.00mm_MKT" H 3988 1800 50  0001 C CNN
F 3 "~" H 3950 1950 50  0001 C CNN
	1    3950 1950
	1    0    0    -1  
$EndComp
$Comp
L Device:R R2
U 1 1 5D042586
P 3950 1500
F 0 "R2" H 4020 1546 50  0000 L CNN
F 1 "100" H 4020 1455 50  0000 L CNN
F 2 "Resistor_THT:R_Axial_DIN0207_L6.3mm_D2.5mm_P10.16mm_Horizontal" V 3880 1500 50  0001 C CNN
F 3 "~" H 3950 1500 50  0001 C CNN
	1    3950 1500
	1    0    0    -1  
$EndComp
Wire Wire Line
	2550 1200 3350 1200
Wire Wire Line
	3350 1200 3350 1350
Connection ~ 2550 1200
Wire Wire Line
	3350 1650 3350 1800
$Comp
L Device:D D3
U 1 1 5D043002
P 3350 2500
F 0 "D3" V 3304 2579 50  0000 L CNN
F 1 "1N4007" V 3395 2579 50  0000 L CNN
F 2 "Diode_THT:D_T-1_P10.16mm_Horizontal" H 3350 2500 50  0001 C CNN
F 3 "~" H 3350 2500 50  0001 C CNN
	1    3350 2500
	0    1    1    0   
$EndComp
Wire Wire Line
	3350 2350 3350 2250
Wire Wire Line
	3350 2250 3950 2250
Wire Wire Line
	3950 2250 3950 2100
Connection ~ 3350 2250
Wire Wire Line
	3350 2250 3350 2100
Wire Wire Line
	3950 1800 3950 1650
Wire Wire Line
	3950 1350 3950 1200
Wire Wire Line
	3950 1200 3350 1200
Connection ~ 3350 1200
Wire Wire Line
	3350 3750 3350 2800
$Comp
L power:GND #PWR0103
U 1 1 5D044C7B
P 3350 4350
F 0 "#PWR0103" H 3350 4100 50  0001 C CNN
F 1 "GND" H 3355 4177 50  0000 C CNN
F 2 "" H 3350 4350 50  0001 C CNN
F 3 "" H 3350 4350 50  0001 C CNN
	1    3350 4350
	1    0    0    -1  
$EndComp
$Comp
L My_Library:ETD29 TR1
U 1 1 5D0453B7
P 4850 1750
F 0 "TR1" H 4850 2275 50  0000 C CNN
F 1 "ETD29" H 4850 2184 50  0000 C CNN
F 2 "MyLibrary:ETD29_Horizontal" H 4750 2050 50  0001 C CNN
F 3 "" H 4750 2050 50  0001 C CNN
	1    4850 1750
	1    0    0    -1  
$EndComp
Wire Wire Line
	3950 1200 4400 1200
Wire Wire Line
	4400 1200 4400 1450
Wire Wire Line
	4400 1450 4650 1450
Connection ~ 3950 1200
Wire Wire Line
	4650 1650 4350 1650
Wire Wire Line
	4350 1650 4350 2800
Wire Wire Line
	4350 2800 3350 2800
Connection ~ 3350 2800
Wire Wire Line
	3350 2800 3350 2650
$Comp
L Device:C C3
U 1 1 5D046B2E
P 4050 4450
F 0 "C3" H 4165 4496 50  0000 L CNN
F 1 "100n" H 4165 4405 50  0000 L CNN
F 2 "Capacitor_SMD:C_1206_3216Metric_Pad1.42x1.75mm_HandSolder" H 4088 4300 50  0001 C CNN
F 3 "~" H 4050 4450 50  0001 C CNN
	1    4050 4450
	1    0    0    -1  
$EndComp
Wire Wire Line
	4050 4300 4050 4150
Wire Wire Line
	4050 4150 3950 4150
$Comp
L power:GND #PWR0104
U 1 1 5D047346
P 4050 4600
F 0 "#PWR0104" H 4050 4350 50  0001 C CNN
F 1 "GND" H 4055 4427 50  0000 C CNN
F 2 "" H 4050 4600 50  0001 C CNN
F 3 "" H 4050 4600 50  0001 C CNN
	1    4050 4600
	1    0    0    -1  
$EndComp
$Comp
L Device:D_Schottky D4
U 1 1 5D04788B
P 5400 1450
F 0 "D4" H 5400 1326 50  0000 C CNN
F 1 "D_Schottky" H 5400 1325 50  0001 C CNN
F 2 "Diode_THT:D_T-1_P2.54mm_Vertical_AnodeUp" H 5400 1450 50  0001 C CNN
F 3 "~" H 5400 1450 50  0001 C CNN
	1    5400 1450
	-1   0    0    1   
$EndComp
Wire Wire Line
	5250 1450 5050 1450
$Comp
L power:GNDREF #PWR0105
U 1 1 5D04920A
P 7350 1850
F 0 "#PWR0105" H 7350 1600 50  0001 C CNN
F 1 "GNDREF" H 7355 1677 50  0000 C CNN
F 2 "" H 7350 1850 50  0001 C CNN
F 3 "" H 7350 1850 50  0001 C CNN
	1    7350 1850
	1    0    0    -1  
$EndComp
$Comp
L Device:CP C4
U 1 1 5D04A296
P 5900 1400
F 0 "C4" H 6018 1446 50  0000 L CNN
F 1 "1000u/25V" H 6018 1355 50  0000 L CNN
F 2 "Capacitor_THT:CP_Radial_D12.5mm_P5.00mm" H 5938 1250 50  0001 C CNN
F 3 "~" H 5900 1400 50  0001 C CNN
	1    5900 1400
	1    0    0    -1  
$EndComp
$Comp
L Device:D_Schottky D5
U 1 1 5D04AD94
P 5400 1750
F 0 "D5" H 5400 1650 50  0000 C CNN
F 1 "D_Schottky" H 5400 1625 50  0001 C CNN
F 2 "Diode_THT:D_T-1_P2.54mm_Vertical_AnodeUp" H 5400 1750 50  0001 C CNN
F 3 "~" H 5400 1750 50  0001 C CNN
	1    5400 1750
	1    0    0    -1  
$EndComp
Wire Wire Line
	5250 1750 5050 1750
Wire Wire Line
	5050 1550 5200 1550
Wire Wire Line
	5200 1550 5200 1650
Wire Wire Line
	5050 1650 5200 1650
Connection ~ 5200 1650
$Comp
L Device:CP C5
U 1 1 5D04DD81
P 5900 1900
F 0 "C5" H 6018 1946 50  0000 L CNN
F 1 "1000u/25V" H 6018 1855 50  0000 L CNN
F 2 "Capacitor_THT:CP_Radial_D12.5mm_P5.00mm" H 5938 1750 50  0001 C CNN
F 3 "~" H 5900 1900 50  0001 C CNN
	1    5900 1900
	1    0    0    -1  
$EndComp
Wire Wire Line
	5200 1650 5900 1650
Wire Wire Line
	5900 1650 5900 1550
Wire Wire Line
	5900 1650 5900 1750
Connection ~ 5900 1650
Wire Wire Line
	5550 1750 5550 2200
Wire Wire Line
	5550 2200 5900 2200
Wire Wire Line
	5900 2200 5900 2050
Wire Wire Line
	5550 1450 5550 1100
Wire Wire Line
	5550 1100 5900 1100
Wire Wire Line
	5900 1100 5900 1250
$Comp
L Device:CP C7
U 1 1 5D052784
P 6600 1400
F 0 "C7" H 6718 1446 50  0000 L CNN
F 1 "1000u/25V" H 6718 1355 50  0000 L CNN
F 2 "Capacitor_THT:CP_Radial_D12.5mm_P5.00mm" H 6638 1250 50  0001 C CNN
F 3 "~" H 6600 1400 50  0001 C CNN
	1    6600 1400
	1    0    0    -1  
$EndComp
$Comp
L Device:CP C8
U 1 1 5D052DC8
P 6600 1900
F 0 "C8" H 6718 1946 50  0000 L CNN
F 1 "1000u/25V" H 6718 1855 50  0000 L CNN
F 2 "Capacitor_THT:CP_Radial_D12.5mm_P5.00mm" H 6638 1750 50  0001 C CNN
F 3 "~" H 6600 1900 50  0001 C CNN
	1    6600 1900
	1    0    0    -1  
$EndComp
Wire Wire Line
	6600 1750 6600 1650
Wire Wire Line
	5900 1650 6600 1650
Connection ~ 6600 1650
Wire Wire Line
	6600 1650 6600 1550
Wire Wire Line
	6600 1250 6600 1100
Wire Wire Line
	6600 1100 5900 1100
Connection ~ 5900 1100
Wire Wire Line
	5900 2200 6600 2200
Wire Wire Line
	6600 2200 6600 2050
Connection ~ 5900 2200
$Comp
L Device:D_Schottky D6
U 1 1 5D055802
P 5600 2600
F 0 "D6" H 5600 2476 50  0000 C CNN
F 1 "D_Schottky" H 5600 2475 50  0001 C CNN
F 2 "Diode_THT:D_T-1_P2.54mm_Vertical_AnodeUp" H 5600 2600 50  0001 C CNN
F 3 "~" H 5600 2600 50  0001 C CNN
	1    5600 2600
	-1   0    0    1   
$EndComp
$Comp
L Device:CP C6
U 1 1 5D055BEB
P 5900 2850
F 0 "C6" H 6018 2896 50  0000 L CNN
F 1 "1000u/25V" H 6018 2805 50  0000 L CNN
F 2 "Capacitor_THT:CP_Radial_D12.5mm_P5.00mm" H 5938 2700 50  0001 C CNN
F 3 "~" H 5900 2850 50  0001 C CNN
	1    5900 2850
	1    0    0    -1  
$EndComp
Wire Wire Line
	7350 1850 7350 1650
Wire Wire Line
	7350 1650 6600 1650
$Comp
L power:GNDA #PWR0106
U 1 1 5D057A63
P 5150 2350
F 0 "#PWR0106" H 5150 2100 50  0001 C CNN
F 1 "GNDA" H 5155 2177 50  0000 C CNN
F 2 "" H 5150 2350 50  0001 C CNN
F 3 "" H 5150 2350 50  0001 C CNN
	1    5150 2350
	1    0    0    -1  
$EndComp
Wire Wire Line
	5150 2350 5150 2050
Wire Wire Line
	5150 2050 5050 2050
Wire Wire Line
	5450 2600 5300 2600
Wire Wire Line
	5300 2600 5300 1950
Wire Wire Line
	5300 1950 5050 1950
Wire Wire Line
	5750 2600 5900 2600
Wire Wire Line
	5900 2600 5900 2700
$Comp
L power:GNDA #PWR0107
U 1 1 5D05A941
P 5900 3000
F 0 "#PWR0107" H 5900 2750 50  0001 C CNN
F 1 "GNDA" H 5905 2827 50  0000 C CNN
F 2 "" H 5900 3000 50  0001 C CNN
F 3 "" H 5900 3000 50  0001 C CNN
	1    5900 3000
	1    0    0    -1  
$EndComp
$Comp
L Isolator:PC817 U2
U 1 1 5D05B34D
P 4850 4050
F 0 "U2" H 4850 4375 50  0000 C CNN
F 1 "PC817" H 4850 4284 50  0000 C CNN
F 2 "Package_DIP:DIP-4_W7.62mm" H 4650 3850 50  0001 L CIN
F 3 "http://www.soselectronic.cz/a_info/resource/d/pc817.pdf" H 4850 4050 50  0001 L CNN
	1    4850 4050
	-1   0    0    -1  
$EndComp
$Comp
L power:GND #PWR0108
U 1 1 5D05CD04
P 4500 4250
F 0 "#PWR0108" H 4500 4000 50  0001 C CNN
F 1 "GND" H 4505 4077 50  0000 C CNN
F 2 "" H 4500 4250 50  0001 C CNN
F 3 "" H 4500 4250 50  0001 C CNN
	1    4500 4250
	1    0    0    -1  
$EndComp
Wire Wire Line
	4500 4250 4500 4150
Wire Wire Line
	4500 4150 4550 4150
Wire Wire Line
	4550 3950 3950 3950
$Comp
L Connector:Conn_01x02_Male J2
U 1 1 5D05F27A
P 7900 2700
F 0 "J2" H 7872 2582 50  0000 R CNN
F 1 "12V" H 7872 2673 50  0000 R CNN
F 2 "Connector_Molex:Molex_KK-254_AE-6410-02A_1x02_P2.54mm_Vertical" H 7900 2700 50  0001 C CNN
F 3 "~" H 7900 2700 50  0001 C CNN
	1    7900 2700
	-1   0    0    1   
$EndComp
Connection ~ 5900 2600
$Comp
L power:GNDA #PWR0109
U 1 1 5D060BFF
P 7600 2800
F 0 "#PWR0109" H 7600 2550 50  0001 C CNN
F 1 "GNDA" H 7605 2627 50  0000 C CNN
F 2 "" H 7600 2800 50  0001 C CNN
F 3 "" H 7600 2800 50  0001 C CNN
	1    7600 2800
	1    0    0    -1  
$EndComp
$Comp
L Connector:Conn_01x03_Male J3
U 1 1 5D0623C4
P 7900 1650
F 0 "J3" H 7872 1582 50  0000 R CNN
F 1 "15V" H 7872 1673 50  0000 R CNN
F 2 "Connector_Molex:Molex_KK-254_AE-6410-03A_1x03_P2.54mm_Vertical" H 7900 1650 50  0001 C CNN
F 3 "~" H 7900 1650 50  0001 C CNN
	1    7900 1650
	-1   0    0    1   
$EndComp
Wire Wire Line
	6600 1100 7700 1100
Wire Wire Line
	7700 1100 7700 1550
Connection ~ 6600 1100
Wire Wire Line
	7700 1750 7700 2200
Wire Wire Line
	7700 2200 6600 2200
Connection ~ 6600 2200
Wire Wire Line
	7350 1650 7700 1650
Connection ~ 7350 1650
$Comp
L Device:D_Zener D7
U 1 1 5D066DB6
P 6550 3250
F 0 "D7" V 6504 3329 50  0000 L CNN
F 1 "12V" V 6595 3329 50  0000 L CNN
F 2 "Diode_THT:D_T-1_P10.16mm_Horizontal" H 6550 3250 50  0001 C CNN
F 3 "~" H 6550 3250 50  0001 C CNN
	1    6550 3250
	0    1    1    0   
$EndComp
Wire Wire Line
	6550 3100 6550 2600
Connection ~ 6550 2600
Wire Wire Line
	6550 2600 5900 2600
$Comp
L Device:R R3
U 1 1 5D0690AE
P 6550 3650
F 0 "R3" H 6620 3696 50  0000 L CNN
F 1 "390" H 6620 3605 50  0000 L CNN
F 2 "Resistor_THT:R_Axial_DIN0207_L6.3mm_D2.5mm_P10.16mm_Horizontal" V 6480 3650 50  0001 C CNN
F 3 "~" H 6550 3650 50  0001 C CNN
	1    6550 3650
	1    0    0    -1  
$EndComp
Wire Wire Line
	6550 3500 6550 3400
Wire Wire Line
	6550 3800 6550 3950
Wire Wire Line
	6550 3950 5150 3950
$Comp
L power:GNDA #PWR0110
U 1 1 5D06BD3C
P 5350 4300
F 0 "#PWR0110" H 5350 4050 50  0001 C CNN
F 1 "GNDA" H 5355 4127 50  0000 C CNN
F 2 "" H 5350 4300 50  0001 C CNN
F 3 "" H 5350 4300 50  0001 C CNN
	1    5350 4300
	1    0    0    -1  
$EndComp
Wire Wire Line
	5350 4300 5350 4150
Wire Wire Line
	5350 4150 5150 4150
$Comp
L Device:R R4
U 1 1 5D06DA88
P 6550 4200
F 0 "R4" H 6620 4246 50  0000 L CNN
F 1 "2k" H 6620 4155 50  0000 L CNN
F 2 "Resistor_THT:R_Axial_DIN0207_L6.3mm_D2.5mm_P10.16mm_Horizontal" V 6480 4200 50  0001 C CNN
F 3 "~" H 6550 4200 50  0001 C CNN
	1    6550 4200
	1    0    0    -1  
$EndComp
Wire Wire Line
	6550 4050 6550 3950
Connection ~ 6550 3950
$Comp
L power:GNDA #PWR0111
U 1 1 5D06F500
P 6550 4350
F 0 "#PWR0111" H 6550 4100 50  0001 C CNN
F 1 "GNDA" H 6555 4177 50  0000 C CNN
F 2 "" H 6550 4350 50  0001 C CNN
F 3 "" H 6550 4350 50  0001 C CNN
	1    6550 4350
	1    0    0    -1  
$EndComp
Wire Wire Line
	1450 800  1450 1150
Wire Wire Line
	7600 2800 7600 2700
Wire Wire Line
	7600 2700 7700 2700
$Comp
L Device:LED D8
U 1 1 5D08D812
P 7150 2850
F 0 "D8" V 7189 2733 50  0000 R CNN
F 1 "LED" V 7098 2733 50  0000 R CNN
F 2 "LED_THT:LED_D5.0mm" H 7150 2850 50  0001 C CNN
F 3 "~" H 7150 2850 50  0001 C CNN
	1    7150 2850
	0    -1   -1   0   
$EndComp
$Comp
L Device:R R5
U 1 1 5D08E292
P 7150 3300
F 0 "R5" H 7220 3346 50  0000 L CNN
F 1 "560" H 7220 3255 50  0000 L CNN
F 2 "Resistor_THT:R_Axial_DIN0207_L6.3mm_D2.5mm_P10.16mm_Horizontal" V 7080 3300 50  0001 C CNN
F 3 "~" H 7150 3300 50  0001 C CNN
	1    7150 3300
	1    0    0    -1  
$EndComp
$Comp
L power:GNDA #PWR0112
U 1 1 5D08E62B
P 7150 3450
F 0 "#PWR0112" H 7150 3200 50  0001 C CNN
F 1 "GNDA" H 7155 3277 50  0000 C CNN
F 2 "" H 7150 3450 50  0001 C CNN
F 3 "" H 7150 3450 50  0001 C CNN
	1    7150 3450
	1    0    0    -1  
$EndComp
Wire Wire Line
	7150 3150 7150 3000
Wire Wire Line
	7150 2700 7150 2600
Wire Wire Line
	6550 2600 7150 2600
Wire Wire Line
	7150 2600 7700 2600
Connection ~ 7150 2600
$EndSCHEMATC
